<svg width="120" height="120" viewBox="0 0 120 120" xmlns="http://www.w3.org/2000/svg">
<path fill-rule="evenodd" clip-rule="evenodd" d="M20 10H99.9989V110L89.999 105.156L79.9999 110L69.9993 105.156L60.0001 110L49.9996 105.156L40.0004 110L29.9999 105.156L20.0014 110V10H20ZM49.1412 44.8489L66.8182 27.1719L70.3546 30.7069L52.6762 48.3853L49.1412 51.9217L45.6048 48.3853L34.9991 37.7797L38.5341 34.2433L49.1412 44.8489ZM34.9991 76.9544H84.9998V81.9551H34.9991V76.9544ZM34.9991 61.9547H84.9998V66.9553H34.9991V61.9547ZM24.9985 14.9985V102.024L29.9992 99.6019L39.9997 104.446L49.9989 99.6019L59.9994 104.446L69.9986 99.6019L79.9992 104.446L89.9983 99.6019L95.0004 102.024V14.9985H24.9978H24.9985Z"/>
</svg>
